Archi/fournitures/OpL/output.vcd
$date
   Fri Nov 22 17:43:40 2024
$end
$version
  P.20131013
$end
$timescale
  1ps
$end
$scope module testopl $end
$var wire 1 7! rst $end
$var wire 1 8! clk $end
$var wire 1 T en $end
$var wire 1 \ v1 [7] $end
$var wire 1 [ v1 [6] $end
$var wire 1 Z v1 [5] $end
$var wire 1 Y v1 [4] $end
$var wire 1 X v1 [3] $end
$var wire 1 W v1 [2] $end
$var wire 1 V v1 [1] $end
$var wire 1 U v1 [0] $end
$var wire 1 d v2 [7] $end
$var wire 1 c v2 [6] $end
$var wire 1 b v2 [5] $end
$var wire 1 a v2 [4] $end
$var wire 1 ` v2 [3] $end
$var wire 1 _ v2 [2] $end
$var wire 1 ^ v2 [1] $end
$var wire 1 ] v2 [0] $end
$var wire 1 Q! miso $end
$var wire 1 R! ss $end
$var wire 1 O! sclk $end
$var wire 1 P! mosi $end
$var wire 1 p val_xor [7] $end
$var wire 1 o val_xor [6] $end
$var wire 1 n val_xor [5] $end
$var wire 1 m val_xor [4] $end
$var wire 1 l val_xor [3] $end
$var wire 1 k val_xor [2] $end
$var wire 1 j val_xor [1] $end
$var wire 1 i val_xor [0] $end
$var wire 1 x val_and [7] $end
$var wire 1 w val_and [6] $end
$var wire 1 v val_and [5] $end
$var wire 1 u val_and [4] $end
$var wire 1 t val_and [3] $end
$var wire 1 s val_and [2] $end
$var wire 1 r val_and [1] $end
$var wire 1 q val_and [0] $end
$var wire 1 "! val_or [7] $end
$var wire 1 !! val_or [6] $end
$var wire 1 ~ val_or [5] $end
$var wire 1 } val_or [4] $end
$var wire 1 | val_or [3] $end
$var wire 1 { val_or [2] $end
$var wire 1 z val_or [1] $end
$var wire 1 y val_or [0] $end
$var wire 1 #! busy $end
$scope module uut $end
$var wire 1 7! rst $end
$var wire 1 8! clk $end
$var wire 1 T en $end
$var wire 1 \ v1 [7] $end
$var wire 1 [ v1 [6] $end
$var wire 1 Z v1 [5] $end
$var wire 1 Y v1 [4] $end
$var wire 1 X v1 [3] $end
$var wire 1 W v1 [2] $end
$var wire 1 V v1 [1] $end
$var wire 1 U v1 [0] $end
$var wire 1 d v2 [7] $end
$var wire 1 c v2 [6] $end
$var wire 1 b v2 [5] $end
$var wire 1 a v2 [4] $end
$var wire 1 ` v2 [3] $end
$var wire 1 _ v2 [2] $end
$var wire 1 ^ v2 [1] $end
$var wire 1 ] v2 [0] $end
$var wire 1 Q! miso $end
$var wire 1 R! ss $end
$var wire 1 O! sclk $end
$var wire 1 P! mosi $end
$var wire 1 p val_xor [7] $end
$var wire 1 o val_xor [6] $end
$var wire 1 n val_xor [5] $end
$var wire 1 m val_xor [4] $end
$var wire 1 l val_xor [3] $end
$var wire 1 k val_xor [2] $end
$var wire 1 j val_xor [1] $end
$var wire 1 i val_xor [0] $end
$var wire 1 x val_and [7] $end
$var wire 1 w val_and [6] $end
$var wire 1 v val_and [5] $end
$var wire 1 u val_and [4] $end
$var wire 1 t val_and [3] $end
$var wire 1 s val_and [2] $end
$var wire 1 r val_and [1] $end
$var wire 1 q val_and [0] $end
$var wire 1 "! val_or [7] $end
$var wire 1 !! val_or [6] $end
$var wire 1 ~ val_or [5] $end
$var wire 1 } val_or [4] $end
$var wire 1 | val_or [3] $end
$var wire 1 { val_or [2] $end
$var wire 1 z val_or [1] $end
$var wire 1 y val_or [0] $end
$var wire 1 #! busy $end
$var wire 1 9! en_er $end
$var wire 1 M! busy_er $end
$var wire 1 L! sortie_er1octet [7] $end
$var wire 1 K! sortie_er1octet [6] $end
$var wire 1 J! sortie_er1octet [5] $end
$var wire 1 I! sortie_er1octet [4] $end
$var wire 1 H! sortie_er1octet [3] $end
$var wire 1 G! sortie_er1octet [2] $end
$var wire 1 F! sortie_er1octet [1] $end
$var wire 1 E! sortie_er1octet [0] $end
$var wire 1 A! entre_er1octet [7] $end
$var wire 1 @! entre_er1octet [6] $end
$var wire 1 ?! entre_er1octet [5] $end
$var wire 1 >! entre_er1octet [4] $end
$var wire 1 =! entre_er1octet [3] $end
$var wire 1 <! entre_er1octet [2] $end
$var wire 1 ;! entre_er1octet [1] $end
$var wire 1 :! entre_er1octet [0] $end
$scope module Inst_er_1octet $end
$var wire 1 7! rst $end
$var wire 1 8! clk $end
$var wire 1 9! en $end
$var wire 1 A! din [7] $end
$var wire 1 @! din [6] $end
$var wire 1 ?! din [5] $end
$var wire 1 >! din [4] $end
$var wire 1 =! din [3] $end
$var wire 1 <! din [2] $end
$var wire 1 ;! din [1] $end
$var wire 1 :! din [0] $end
$var wire 1 Q! miso $end
$var wire 1 O! sclk $end
$var wire 1 P! mosi $end
$var wire 1 L! dout [7] $end
$var wire 1 K! dout [6] $end
$var wire 1 J! dout [5] $end
$var wire 1 I! dout [4] $end
$var wire 1 H! dout [3] $end
$var wire 1 G! dout [2] $end
$var wire 1 F! dout [1] $end
$var wire 1 E! dout [0] $end
$var wire 1 M! busy $end
$upscope $end
$upscope $end
$scope module Inst_SlaveOpl $end
$var wire 1 O! sclk $end
$var wire 1 P! mosi $end
$var wire 1 Q! miso $end
$var wire 1 R! ss $end
$var wire 1 Z! v1 [7] $end
$var wire 1 Y! v1 [6] $end
$var wire 1 X! v1 [5] $end
$var wire 1 W! v1 [4] $end
$var wire 1 V! v1 [3] $end
$var wire 1 U! v1 [2] $end
$var wire 1 T! v1 [1] $end
$var wire 1 S! v1 [0] $end
$var wire 1 b! v2 [7] $end
$var wire 1 a! v2 [6] $end
$var wire 1 `! v2 [5] $end
$var wire 1 _! v2 [4] $end
$var wire 1 ^! v2 [3] $end
$var wire 1 ]! v2 [2] $end
$var wire 1 \! v2 [1] $end
$var wire 1 [! v2 [0] $end
$var wire 1 j! val_xor [7] $end
$var wire 1 i! val_xor [6] $end
$var wire 1 h! val_xor [5] $end
$var wire 1 g! val_xor [4] $end
$var wire 1 f! val_xor [3] $end
$var wire 1 e! val_xor [2] $end
$var wire 1 d! val_xor [1] $end
$var wire 1 c! val_xor [0] $end
$var wire 1 r! val_and [7] $end
$var wire 1 q! val_and [6] $end
$var wire 1 p! val_and [5] $end
$var wire 1 o! val_and [4] $end
$var wire 1 n! val_and [3] $end
$var wire 1 m! val_and [2] $end
$var wire 1 l! val_and [1] $end
$var wire 1 k! val_and [0] $end
$var wire 1 z! val_or [7] $end
$var wire 1 y! val_or [6] $end
$var wire 1 x! val_or [5] $end
$var wire 1 w! val_or [4] $end
$var wire 1 v! val_or [3] $end
$var wire 1 u! val_or [2] $end
$var wire 1 t! val_or [1] $end
$var wire 1 s! val_or [0] $end
$upscope $end
$upscope $end
$enddefinitions $end
#0
$dumpvars
08!
07!
0T
x\
x[
xZ
xY
xX
xW
xV
xU
xd
xc
xb
xa
x`
x_
x^
x]
xQ!
1R!
1O!
xP!
xp
xo
xn
xm
xl
xk
xj
xi
xx
xw
xv
xu
xt
xs
xr
xq
x"!
x!!
x~
x}
x|
x{
xz
xy
0#!
09!
0M!
xL!
xK!
xJ!
xI!
xH!
xG!
xF!
xE!
xA!
x@!
x?!
x>!
x=!
x<!
x;!
x:!
xZ!
xY!
xX!
xW!
xV!
xU!
xT!
xS!
xb!
xa!
x`!
x_!
x^!
x]!
x\!
x[!
0j!
0i!
1h!
1g!
0f!
0e!
1d!
1c!
1r!
0q!
1p!
0o!
0n!
0m!
0l!
0k!
1z!
1y!
0x!
0w!
1v!
1u!
0t!
0s!
$end
#5000
18!
#10000
08!
#15000
18!
#20000
08!
#25000
18!
#30000
08!
#35000
18!
#40000
08!
#45000
18!
#50000
08!
#55000
18!
#60000
08!
#65000
18!
#70000
08!
#75000
18!
#80000
08!
#85000
18!
#90000
08!
#95000
18!
#100000
08!
17!
#105000
18!
#110000
08!
#115000
18!
#120000
08!
#125000
18!
#130000
08!
#135000
18!
#140000
08!
#145000
18!
#150000
08!
#155000
18!
#160000
08!
#165000
18!
#170000
08!
#175000
18!
#180000
08!
#185000
18!
#190000
08!
#195000
18!
#200000
08!
#205000
18!
#210000
08!
#215000
18!
1T
0\
1[
0Z
1Y
0X
1W
0V
1U
1d
0c
1b
0a
1`
0_
1^
0]
#220000
08!
#225000
18!
0T
0R!
1#!
#230000
08!
#235000
18!
#240000
08!
#245000
18!
#250000
08!
#255000
18!
#260000
08!
#265000
18!
#270000
08!
#275000
18!
#280000
08!
#285000
18!
#290000
08!
#295000
18!
#300000
08!
#305000
18!
#310000
08!
#315000
18!
#320000
08!
#325000
18!
19!
0A!
1@!
0?!
1>!
0=!
1<!
0;!
1:!
#330000
08!
#335000
18!
0Q!
0O!
0P!
09!
1M!
#340000
08!
#345000
18!
1O!
0Z!
#350000
08!
#355000
18!
0O!
1P!
#360000
08!
#365000
18!
1O!
1Y!
#370000
08!
#375000
18!
1Q!
0O!
0P!
#380000
08!
#385000
18!
1O!
0X!
#390000
08!
#395000
18!
0O!
1P!
#400000
08!
#405000
18!
1O!
1W!
#410000
08!
#415000
18!
0Q!
0O!
0P!
#420000
08!
#425000
18!
1O!
0V!
#430000
08!
#435000
18!
0O!
1P!
#440000
08!
#445000
18!
1O!
1U!
#450000
08!
#455000
18!
1Q!
0O!
0P!
#460000
08!
#465000
18!
1O!
0T!
#470000
08!
#475000
18!
0O!
1P!
#480000
08!
#485000
18!
1O!
0M!
0L!
0K!
1J!
1I!
0H!
0G!
1F!
1E!
1S!
#490000
08!
#495000
18!
0p
0o
1n
1m
0l
0k
1j
1i
#500000
08!
#505000
18!
#510000
08!
#515000
18!
#520000
08!
#525000
18!
19!
1A!
0@!
1?!
0>!
1=!
0<!
1;!
0:!
#530000
08!
#535000
18!
0O!
09!
1M!
#540000
08!
#545000
18!
1O!
1b!
#550000
08!
#555000
18!
0Q!
0O!
0P!
#560000
08!
#565000
18!
1O!
0a!
#570000
08!
#575000
18!
1Q!
0O!
1P!
#580000
08!
#585000
18!
1O!
1`!
#590000
08!
#595000
18!
0Q!
0O!
0P!
#600000
08!
#605000
18!
1O!
0_!
#610000
08!
#615000
18!
0O!
1P!
#620000
08!
#625000
18!
1O!
1^!
#630000
08!
#635000
18!
0O!
0P!
#640000
08!
#645000
18!
1O!
0]!
#650000
08!
#655000
18!
0O!
1P!
#660000
08!
#665000
18!
1O!
1\!
#670000
08!
#675000
18!
0O!
0P!
#680000
08!
#685000
18!
1O!
0M!
1L!
0I!
0F!
0E!
0[!
#690000
08!
#695000
18!
1x
0w
1v
0u
0t
0s
0r
0q
#700000
08!
#705000
18!
#710000
08!
#715000
18!
#720000
08!
#725000
18!
19!
0A!
0?!
0=!
0;!
#730000
08!
#735000
18!
1Q!
0O!
09!
1M!
#740000
08!
#745000
18!
1O!
#750000
08!
#755000
18!
0O!
#760000
08!
#765000
18!
1O!
#770000
08!
#775000
18!
0Q!
0O!
#780000
08!
#785000
18!
1O!
#790000
08!
#795000
18!
0O!
#800000
08!
#805000
18!
1O!
#810000
08!
#815000
18!
1Q!
0O!
#820000
08!
#825000
18!
1O!
#830000
08!
#835000
18!
0O!
#840000
08!
#845000
18!
1O!
#850000
08!
#855000
18!
0Q!
0O!
#860000
08!
#865000
18!
1O!
#870000
08!
#875000
18!
0O!
#880000
08!
#885000
18!
1O!
0M!
1K!
0J!
1H!
1G!
1j!
1i!
1f!
1e!
0r!
0p!
1x!
1w!
1t!
1s!
#890000
08!
#895000
18!
1R!
1"!
1!!
0~
0}
1|
1{
0z
0y
0#!
#900000
08!
#905000
18!
#910000
08!
#915000
18!
#920000
08!
#925000
18!
#930000
08!
#935000
18!
#940000
08!
#945000
18!
#950000
08!
#955000
18!
#960000
08!
#965000
18!
1T
1\
1Z
0Y
1V
1c
0b
0`
1]
#970000
08!
#975000
18!
0T
0R!
1#!
#980000
08!
#985000
18!
#990000
08!
#995000
18!
#1000000
08!
#1005000
18!
#1010000
08!
#1015000
18!
#1020000
08!
#1025000
18!
#1030000
08!
#1035000
18!
#1040000
08!
#1045000
18!
#1050000
08!
#1055000
18!
#1060000
08!
#1065000
18!
#1070000
08!
#1075000
18!
19!
1A!
1@!
1?!
1<!
1;!
1:!
#1080000
08!
#1085000
18!
1Q!
0O!
1P!
09!
1M!
#1090000
08!
#1095000
18!
1O!
1Z!
#1100000
08!
#1105000
18!
0O!
#1110000
08!
#1115000
18!
1O!
#1120000
08!
#1125000
18!
0O!
#1130000
08!
#1135000
18!
1O!
1X!
#1140000
08!
#1145000
18!
0O!
0P!
#1150000
08!
#1155000
18!
1O!
0W!
#1160000
08!
#1165000
18!
0O!
#1170000
08!
#1175000
18!
1O!
#1180000
08!
#1185000
18!
0O!
1P!
#1190000
08!
#1195000
18!
1O!
#1200000
08!
#1205000
18!
0O!
#1210000
08!
#1215000
18!
1O!
1T!
#1220000
08!
#1225000
18!
0O!
#1230000
08!
#1235000
18!
1O!
0M!
1J!
1I!
1F!
1E!
#1240000
08!
#1245000
18!
1p
1o
1l
1k
#1250000
08!
#1255000
18!
#1260000
08!
#1265000
18!
#1270000
08!
#1275000
18!
19!
0?!
0<!
#1280000
08!
#1285000
18!
0Q!
0O!
09!
1M!
#1290000
08!
#1295000
18!
1O!
#1300000
08!
#1305000
18!
0O!
#1310000
08!
#1315000
18!
1O!
1a!
#1320000
08!
#1325000
18!
0O!
0P!
#1330000
08!
#1335000
18!
1O!
0`!
#1340000
08!
#1345000
18!
0O!
#1350000
08!
#1355000
18!
1O!
#1360000
08!
#1365000
18!
0O!
#1370000
08!
#1375000
18!
1O!
0^!
#1380000
08!
#1385000
18!
0O!
#1390000
08!
#1395000
18!
1O!
#1400000
08!
#1405000
18!
0O!
1P!
#1410000
08!
#1415000
18!
1O!
#1420000
08!
#1425000
18!
0O!
#1430000
08!
#1435000
18!
1O!
0M!
0L!
0K!
0J!
0I!
0H!
0G!
0F!
0E!
1[!
#1440000
08!
#1445000
18!
0x
0v
#1450000
08!
#1455000
18!
#1460000
08!
#1465000
18!
#1470000
08!
#1475000
18!
19!
0A!
0@!
0;!
0:!
#1480000
08!
#1485000
18!
1Q!
0O!
0P!
09!
1M!
#1490000
08!
#1495000
18!
1O!
#1500000
08!
#1505000
18!
0O!
#1510000
08!
#1515000
18!
1O!
#1520000
08!
#1525000
18!
0O!
#1530000
08!
#1535000
18!
1O!
#1540000
08!
#1545000
18!
0O!
#1550000
08!
#1555000
18!
1O!
#1560000
08!
#1565000
18!
0O!
#1570000
08!
#1575000
18!
1O!
#1580000
08!
#1585000
18!
0O!
#1590000
08!
#1595000
18!
1O!
#1600000
08!
#1605000
18!
0O!
#1610000
08!
#1615000
18!
1O!
#1620000
08!
#1625000
18!
0O!
#1630000
08!
#1635000
18!
1O!
0M!
1L!
1K!
1J!
1I!
1H!
1G!
1F!
1E!
0j!
0i!
0g!
0f!
0d!
0c!
1r!
1q!
1l!
1k!
0w!
0v!
#1640000
08!
#1645000
18!
1R!
1~
1}
1z
1y
0#!
#1650000
08!
#1655000
18!
#1660000
08!
#1665000
18!
#1670000
08!
#1675000
18!
#1680000
08!
#1685000
18!
#1690000
08!
#1695000
18!
#1700000
08!
#1705000
18!
#1710000
08!
#1715000
18!
1T
x\
x[
xZ
xY
xX
xW
xV
xU
xd
xc
xb
xa
x`
x_
x^
x]
#1720000
08!
#1725000
18!
0T
0R!
1#!
#1730000
08!
#1735000
18!
#1740000
08!
#1745000
18!
#1750000
08!
#1755000
18!
#1760000
08!
#1765000
18!
#1770000
08!
#1775000
18!
#1780000
08!
#1785000
18!
#1790000
08!
#1795000
18!
#1800000
08!
#1805000
18!
#1810000
08!
#1815000
18!
#1820000
08!
#1825000
18!
19!
xA!
x@!
x?!
x>!
x=!
x<!
x;!
x:!
#1830000
08!
#1835000
18!
0Q!
0O!
xP!
09!
1M!
#1840000
08!
#1845000
18!
1O!
xZ!
#1850000
08!
#1855000
18!
0O!
#1860000
08!
#1865000
18!
1O!
xY!
#1870000
08!
#1875000
18!
1Q!
0O!
#1880000
08!
#1885000
18!
1O!
xX!
#1890000
08!
#1895000
18!
0Q!
0O!
#1900000
08!
#1905000
18!
1O!
xW!
#1910000
08!
#1915000
18!
0O!
#1920000
08!
#1925000
18!
1O!
xV!
#1930000
08!
#1935000
18!
1Q!
0O!
#1940000
08!
#1945000
18!
1O!
xU!
#1950000
08!
#1955000
18!
0Q!
0O!
#1960000
08!
#1965000
18!
1O!
xT!
#1970000
08!
#1975000
18!
0O!
#1980000
08!
#1985000
18!
1O!
0M!
0L!
0K!
0I!
0H!
0F!
0E!
xS!
#1990000
08!
#1995000
18!
0p
0o
0m
0l
0j
0i
#2000000
08!
#2005000
18!
#2010000
08!
#2015000
18!
#2020000
08!
#2025000
18!
19!
#2030000
08!
#2035000
18!
1Q!
0O!
09!
1M!
#2040000
08!
#2045000
18!
1O!
xb!
#2050000
08!
#2055000
18!
0O!
#2060000
08!
#2065000
18!
1O!
xa!
#2070000
08!
#2075000
18!
0Q!
0O!
#2080000
08!
#2085000
18!
1O!
x`!
#2090000
08!
#2095000
18!
0O!
#2100000
08!
#2105000
18!
1O!
x_!
#2110000
08!
#2115000
18!
0O!
#2120000
08!
#2125000
18!
1O!
x^!
#2130000
08!
#2135000
18!
0O!
#2140000
08!
#2145000
18!
1O!
x]!
#2150000
08!
#2155000
18!
1Q!
0O!
#2160000
08!
#2165000
18!
1O!
x\!
#2170000
08!
#2175000
18!
0O!
#2180000
08!
#2185000
18!
1O!
0M!
1L!
1K!
0J!
0G!
1F!
1E!
x[!
#2190000
08!
#2195000
18!
1x
1w
1r
1q
#2200000
08!
#2205000
18!
#2210000
08!
#2215000
18!
#2220000
08!
#2225000
18!
19!
0A!
0@!
0?!
0>!
0=!
0<!
0;!
0:!
#2230000
08!
#2235000
18!
0O!
0P!
09!
1M!
#2240000
08!
#2245000
18!
1O!
#2250000
08!
#2255000
18!
0O!
#2260000
08!
#2265000
18!
1O!
#2270000
08!
#2275000
18!
0O!
#2280000
08!
#2285000
18!
1O!
#2290000
08!
#2295000
18!
0Q!
0O!
#2300000
08!
#2305000
18!
1O!
#2310000
08!
#2315000
18!
0O!
#2320000
08!
#2325000
18!
1O!
#2330000
08!
#2335000
18!
1Q!
0O!
#2340000
08!
#2345000
18!
1O!
#2350000
08!
#2355000
18!
0O!
#2360000
08!
#2365000
18!
1O!
#2370000
08!
#2375000
18!
0O!
#2380000
08!
#2385000
18!
1O!
0M!
1J!
1G!
xj!
xi!
xh!
xg!
xf!
xe!
xd!
xc!
xr!
xq!
xp!
xo!
xn!
xm!
xl!
xk!
xz!
xy!
xx!
xw!
xv!
xu!
xt!
xs!
#2390000
08!
#2395000
18!
1R!
0}
0|
0#!
